#
## Alias OBJ Material File
# Exported from SketchUp, (c) 2000-2012 Trimble Navigation Limited

newmtl M_54CE5DCA_c
Ka 0.000000 0.000000 0.000000
Kd 0.203922 0.250980 0.360784
Ks 0.330000 0.330000 0.330000
map_Kd BishopB/M_54CE5DCA_c.png

newmtl D21C421_c
Ka 0.000000 0.000000 0.000000
Kd 0.180392 0.196078 0.270588
Ks 0.330000 0.330000 0.330000
map_Kd BishopB/D21C421_c.png

newmtl M_345ED821_c
Ka 0.000000 0.000000 0.000000
Kd 0.188235 0.121569 0.047059
Ks 0.330000 0.330000 0.330000
map_Kd BishopB/M_345ED821_c.png

newmtl M_2479C1FD_c
Ka 0.000000 0.000000 0.000000
Kd 0.192157 0.117647 0.043137
Ks 0.330000 0.330000 0.330000
map_Kd BishopB/M_2479C1FD_c.png

newmtl M_5D61A6B3_c
Ka 0.000000 0.000000 0.000000
Kd 0.156863 0.105882 0.050980
Ks 0.330000 0.330000 0.330000
map_Kd BishopB/M_5D61A6B3_c.png

newmtl M_6589192F_c
Ka 0.000000 0.000000 0.000000
Kd 0.247059 0.235294 0.200000
Ks 0.330000 0.330000 0.330000
map_Kd BishopB/M_6589192F_c.png

newmtl M_693554D2_c
Ka 0.000000 0.000000 0.000000
Kd 0.184314 0.117647 0.054902
Ks 0.330000 0.330000 0.330000
map_Kd BishopB/M_693554D2_c.png

newmtl M_57CB6E40_c
Ka 0.000000 0.000000 0.000000
Kd 0.054902 0.023529 0.000000
Ks 0.330000 0.330000 0.330000
map_Kd BishopB/M_57CB6E40_c.png

newmtl M_27626C73_c
Ka 0.000000 0.000000 0.000000
Kd 0.180392 0.164706 0.207843
Ks 0.330000 0.330000 0.330000
map_Kd BishopB/M_27626C73_c.png

newmtl Material3
Ka 0.000000 0.000000 0.000000
Kd 0.000000 0.164706 0.000000
Ks 0.330000 0.330000 0.330000
map_Kd BishopB/Material3.png

